…
#> 6 OPR0000199638 SCEA FERME D~ BSS95455F_018    1987-01-01       NA              
#> 7 OPR0000333915 Soc des Carr~ 32055_017        2016-06-24       NA              
#> 8 OPR0000586224 SCEA DU MERI~ BSS95299L_018    2012-12-31       NA              
#> 9 OPR0000608675 CRBPE ROMILL~ 31132_018        1900-01-01       NA              
#> # ... with 22 more variables: code_precision_coord <chr>,
#> #   libelle_precision_coord <chr>, commentaire <lgl>, code_commune_insee <chr>,
#> #   nom_commune <chr>, code_departement <chr>, libelle_departement <chr>,
#> #   code_type_milieu <chr>, libelle_type_milieu <chr>,
#> #   code_entite_hydro_cours_eau <chr>, uri_entite_hydro_cours_eau <chr>,
#> #   code_entite_hydro_plan_eau <lgl>, uri_entite_hydro_plan_eau <lgl>,
#> #   code_mer_ocean <lgl>, ressource_cont_non_referencee <lgl>, ...
#> 
#> gt_pr_> # Retrieve the withdrawal time series of the devices located in Romilly-sur-Seine
#> gt_pr_> get_prelevements_chroniques(list(code_commune_insee = "10323"))
#> # A tibble: 41 x 23
#>    code_ouvrage  annee volume code_usage libelle_usage code_statut_volume
#>    <chr>         <int>  <dbl> <chr>      <chr>         <chr>             
#>  1 OPR0000032603  2012 617624 AEP        EAU POTABLE   1                 
#>  2 OPR0000032603  2013 463545 AEP        EAU POTABLE   1                 
#>  3 OPR0000032603  2014 535557 AEP        EAU POTABLE   1                 
#>  4 OPR0000032603  2015 541785 AEP        EAU POTABLE   1                 
#>  5 OPR0000032603  2016 478938 AEP        EAU POTABLE   1                 
#>  6 OPR0000032603  2017 402363 AEP        EAU POTABLE   1                 
#>  7 OPR0000032603  2018 402383 AEP        EAU POTABLE   1                 
#>  8 OPR0000032604  2012 617624 AEP        EAU POTABLE   1                 
#>  9 OPR0000032604  2013 463545 AEP        EAU POTABLE   1                 
#> 10 OPR0000032604  2014 535557 AEP        EAU POTABLE   1                 
#> # ... with 31 more rows, and 17 more variables: libelle_statut_volume <chr>,
#> #   code_qualification_volume <chr>, libelle_qualification_volume <chr>,
#> #   code_statut_instruction <chr>, libelle_statut_instruction <chr>,
#> #   code_mode_obtention_volume <chr>, libelle_mode_obtention_volume <chr>,
#> #   prelevement_ecrasant <lgl>, producteur_donnee <chr>, longitude <dbl>,
#> #   latitude <dbl>, code_commune_insee <chr>, nom_commune <chr>,
#> #   code_departement <chr>, libelle_departement <chr>, nom_ouvrage <chr>, ...
```
…
