Retrieve data from API "Qualité physico-chimique des cours d'eau" — get_qualite_rivieres_analyse • hubeau
…
  fields = c("code_station",
             "libelle_station",
             "code_parametre",
             "libelle_parametre",
             "date_prelevement",
             "resultat",
             "symbole_unite",
             "code_remarque",
             "mnemo_remarque",
             "code_statut",
             "mnemo_statut",
             "code_qualification",
             "libelle_qualification")
)
#> # A tibble: 112 × 13
#>    code_station libelle_station       date_prelevement code_parametre
#>    <chr>        <chr>                 <chr>            <chr>         
#>  1 02115725     LA CRUSNES À LONGUYON 2013-01-22       1340          
#>  2 02115725     LA CRUSNES À LONGUYON 2013-02-19       1340          
#>  3 02115725     LA CRUSNES À LONGUYON 2013-03-19       1340          
#>  4 02115725     LA CRUSNES À LONGUYON 2013-04-16       1340          
#>  5 02115725     LA CRUSNES À LONGUYON 2013-05-14       1340          
#>  6 02115725     LA CRUSNES À LONGUYON 2013-06-11       1340          
#>  7 02115725     LA CRUSNES À LONGUYON 2013-07-09       1340          
#>  8 02115725     LA CRUSNES À LONGUYON 2013-08-06       1340          
#>  9 02115725     LA CRUSNES À LONGUYON 2013-09-03       1340          
#> 10 02115725     LA CRUSNES À LONGUYON 2013-10-02       1340          
#> # ℹ 102 more rows
#> # ℹ 9 more variables: libelle_parametre <chr>, resultat <dbl>,
#> #   symbole_unite <chr>, code_remarque <chr>, mnemo_remarque <chr>,
#> #   code_statut <chr>, mnemo_statut <chr>, code_qualification <chr>,
#> #   libelle_qualification <chr>
…
             "libelle_station",
             "code_parametre",
             "libelle_parametre",
             "date_prelevement",
             "resultat",
             "symbole_unite",
             "code_remarque",
             "mnemo_remarque",
             "code_statut",
             "mnemo_statut",
             "code_qualification",
             "libelle_qualification"),
 sort = "desc"
)
#> # A tibble: 112 × 13
#>    code_station libelle_station       date_prelevement code_parametre
#>    <chr>        <chr>                 <chr>            <chr>         
#>  1 02115725     LA CRUSNES À LONGUYON 2022-12-23       1340          
#>  2 02115725     LA CRUSNES À LONGUYON 2022-11-29       1340          
#>  3 02115725     LA CRUSNES À LONGUYON 2022-11-03       1340          
#>  4 02115725     LA CRUSNES À LONGUYON 2022-10-04       1340          
#>  5 02115725     LA CRUSNES À LONGUYON 2022-09-06       1340          
#>  6 02115725     LA CRUSNES À LONGUYON 2022-08-09       1340          
#>  7 02115725     LA CRUSNES À LONGUYON 2022-07-12       1340          
#>  8 02115725     LA CRUSNES À LONGUYON 2022-06-14       1340          
#>  9 02115725     LA CRUSNES À LONGUYON 2022-05-17       1340          
#> 10 02115725     LA CRUSNES À LONGUYON 2022-01-25       1340          
#> # ℹ 102 more rows
#> # ℹ 9 more variables: libelle_parametre <chr>, resultat <dbl>,
#> #   symbole_unite <chr>, code_remarque <chr>, mnemo_remarque <chr>,
#> #   code_statut <chr>, mnemo_statut <chr>, code_qualification <chr>,
#> #   libelle_qualification <chr>
…
                   "02115700",
                   "02115715"),
  libelle_parametre = "Nitrates",
  date_debut_prelevement = "2016-08-01",
  code_qualification = 1,
  fields = c("code_station",
             "libelle_station",
             "libelle_parametre",
             "date_prelevement",
             "resultat",
             "symbole_unite",
             "code_remarque"),
 sort = "desc"
)
#> # A tibble: 218 × 7
#>    code_station libelle_station      date_prelevement libelle_parametre resultat
#>    <chr>        <chr>                <chr>            <chr>                <dbl>
#>  1 02115650     LA CHIERS À CONS-LA… 2022-12-23       Nitrates                16
#>  2 02115725     LA CRUSNES À LONGUY… 2022-12-23       Nitrates                35
#>  3 02115685     LE RUISSEAU DE NANH… 2022-12-23       Nitrates                35
#>  4 02115685     LE RUISSEAU DE NANH… 2022-11-29       Nitrates                25
#>  5 02115650     LA CHIERS À CONS-LA… 2022-11-29       Nitrates                16
#>  6 02115725     LA CRUSNES À LONGUY… 2022-11-29       Nitrates                25
#>  7 02115650     LA CHIERS À CONS-LA… 2022-11-03       Nitrates                15
#>  8 02115725     LA CRUSNES À LONGUY… 2022-11-03       Nitrates                15
#>  9 02115685     LE RUISSEAU DE NANH… 2022-11-03       Nitrates                12
#> 10 02115685     LE RUISSEAU DE NANH… 2022-10-04       Nitrates                14
#> # ℹ 208 more rows
#> # ℹ 2 more variables: symbole_unite <chr>, code_remarque <chr>
…
