Retrieve data from API "Piézométrie" — get_niveaux_nappes_stations • hubeau
…
get_niveaux_nappes_chroniques(params)

get_niveaux_nappes_chroniques_tr(params)

    Arguments

    params
a list the list of parameters of the queries and their values in the format list(ParamName = "Param value", ...), use the function list_params for a list of the available filter parameters for a given API endpoint and see the API documentation for their description

    Examples

# Retrieve the hydrometric stations in the department of Aube
get_niveaux_nappes_stations(list(code_departement = "10"))
#> # A tibble: 757 × 21
#>    code_bss  urn_bss date_…¹ date_…² code_…³ nom_c…⁴     x     y codes…⁵ urns_…⁶
#>    <chr>     <chr>   <chr>   <chr>   <chr>   <chr>   <dbl> <dbl> <chr>   <chr>  
#>  1 03001X01… http:/… 1986-0… 1986-1… 10411   La Vil…  4.68  48.4 NA      NA     
#>  2 03001X01… http:/… 1986-0… 1986-1… 10411   La Vil…  4.68  48.4 NA      NA     
#>  3 02994X01… http:/… 1985-0… 1986-1… 10372   Soulai…  4.67  48.4 NA      NA     
#>  4 02994X02… http:/… 1986-0… 1986-1… 10139   Épothé…  4.66  48.4 NA      NA     
#>  5 03001X01… http:/… 1986-0… 1986-1… 10372   Soulai…  4.68  48.4 NA      NA     
#>  6 02994X03… http:/… 1986-0… 1986-1… 10372   Soulai…  4.67  48.4 NA      NA     
#>  7 03001X00… http:/… 1985-0… 1986-0… 10372   Soulai…  4.72  48.4 NA      NA     
#>  8 02623X00… http:/… 1977-1… 1991-1… 10354   Saint-…  4.22  48.5 121AO30 http:/…
#>  9 02623X00… http:/… 1977-1… 1991-1… 10354   Saint-…  4.22  48.5 928AG01 http:/…
#> 10 03001X01… http:/… 1985-0… 1986-1… 10411   La Vil…  4.68  48.4 NA      NA     
#> # … with 747 more rows, 11 more variables: bss_id <chr>,
#> #   altitude_station <chr>, nb_mesures_piezo <int>, code_departement <chr>,
#> #   nom_departement <chr>, libelle_pe <chr>, profondeur_investigation <dbl>,
#> #   codes_masse_eau_edl <chr>, noms_masse_eau_edl <chr>,
#> #   urns_masse_eau_edl <chr>, date_maj <chr>, and abbreviated variable names
#> #   ¹​date_debut_mesure, ²​date_fin_mesure, ³​code_commune_insee, ⁴​nom_commune,
#> #   ⁵​codes_bdlisa, ⁶​urns_bdlisa
#> # ℹ Use `print(n = ...)` to see more rows, and `colnames()` to see all variable names
…
