Retrieve data from API "Prélèvements en eau" — get_prelevements_points_prelevement • hubeau
…
# Retrieve the withdrawal time series of the devices located in Romilly-sur-Seine
get_prelevements_chroniques(code_commune_insee = "10323")
#> # A tibble: 45 × 28
#>    code_o…¹ annee volume code_…² libel…³ code_…⁴ libel…⁵ code_…⁶ libel…⁷ code_…⁸
#>    <chr>    <int>  <dbl> <chr>   <chr>   <chr>   <chr>   <chr>   <chr>   <chr>  
#>  1 OPR0000…  2012 617624 AEP     EAU PO… 1       Contrô… 1       Correc… REA    
#>  2 OPR0000…  2013 463545 AEP     EAU PO… 1       Contrô… 1       Correc… REA    
#>  3 OPR0000…  2014 535557 AEP     EAU PO… 1       Contrô… 1       Correc… REA    
#>  4 OPR0000…  2015 541785 AEP     EAU PO… 1       Contrô… 1       Correc… REA    
#>  5 OPR0000…  2016 478938 AEP     EAU PO… 1       Contrô… 1       Correc… REA    
#>  6 OPR0000…  2017 402363 AEP     EAU PO… 1       Contrô… 1       Correc… REA    
#>  7 OPR0000…  2018 402383 AEP     EAU PO… 1       Contrô… 1       Correc… REA    
#>  8 OPR0000…  2012 617624 AEP     EAU PO… 1       Contrô… 1       Correc… REA    
#>  9 OPR0000…  2013 463545 AEP     EAU PO… 1       Contrô… 1       Correc… REA    
#> 10 OPR0000…  2014 535557 AEP     EAU PO… 1       Contrô… 1       Correc… REA    
#> # … with 35 more rows, 18 more variables: libelle_statut_instruction <chr>,
#> #   code_mode_obtention_volume <chr>, libelle_mode_obtention_volume <chr>,
#> #   prelevement_ecrasant <lgl>, producteur_donnee <chr>, longitude <dbl>,
#> #   latitude <dbl>, code_commune_insee <chr>, nom_commune <chr>,
#> #   code_departement <chr>, libelle_departement <chr>, nom_ouvrage <chr>,
#> #   geometry.type <chr>, geometry.crs.type <chr>,
#> #   geometry.crs.properties.name <chr>, geometry.coordinates1 <dbl>, …
…
