Retrieve data from API "Qualité de l'eau potable" — get_qualite_eau_potable_communes_udi • hubeau
…
# Get results of analysis realised at Grabels in 2022
get_qualite_eau_potable_resultats_dis(code_commune = 34116,
                                      date_min_prelevement = "2000-01-01",
                                      date_max_prelevement = "2022-12-31")
#> # A tibble: 8,205 × 34
#>    code_depart…¹ nom_d…² code_…³ code_…⁴ code_…⁵ code_…⁶ libel…⁷ libel…⁸ libel…⁹
#>    <chr>         <chr>   <chr>   <chr>   <chr>   <chr>   <chr>   <chr>   <lgl>  
#>  1 34            Hérault 034002… 1295    TURBNFU NA      Turbid… "TURBI… NA     
#>  2 34            Hérault 034002… 5441    GT36_44 NA      Bact. … "BACT.… NA     
#>  3 34            Hérault 034002… 1754    CLO2    10049-… Bioxyd… "BIOXY… NA     
#>  4 34            Hérault 034002… 6455    STRF    NA      Entéro… "ENTÉR… NA     
#>  5 34            Hérault 034002… 1302    PH      NA      pH      "PH "   NA     
#>  6 34            Hérault 034002… 6489    ASP     NA      Aspect… "ASPEC… NA     
#>  7 34            Hérault 034002… 1042    BSIR    NA      Bact. … "BACT.… NA     
#>  8 34            Hérault 034002… 5902    SAVQ    NA      Saveur… "SAVEU… NA     
#>  9 34            Hérault 034002… 1447    CTF     NA      Bactér… "BACTÉ… NA     
#> 10 34            Hérault 034002… 5900    COULQ   NA      Couleu… "COULE… NA     
#> # … with 8,195 more rows, 25 more variables: code_type_parametre <chr>,
#> #   code_lieu_analyse <chr>, resultat_alphanumerique <chr>,
#> #   resultat_numerique <dbl>, libelle_unite <chr>, code_unite <chr>,
#> #   limite_qualite_parametre <chr>, reference_qualite_parametre <chr>,
#> #   code_commune <chr>, nom_commune <chr>, nom_uge <chr>,
#> #   nom_distributeur <chr>, nom_moa <chr>, date_prelevement <chr>,
#> #   conclusion_conformite_prelevement <chr>, …
…
