Retrieve data from API "Qualité des nappes d'eau souterraines" — get_qualite_nappes_analyses • hubeau
…
# Get results of analysis realised at Grabels in 2019
get_qualite_nappes_analyses(bss_id = "BSS002GNSA",
                            date_debut_prelevement = "2019-11-12")
#> # A tibble: 862 × 180
#>    bss_id     code_bss urn_bss precision_coordonnees longitude latitude altitude
#>    <chr>      <chr>    <chr>   <lgl>                     <dbl>    <dbl> <chr>   
#>  1 BSS002GNSA 09903X0… http:/… NA                         3.80     43.7 104.0   
#>  2 BSS002GNSA 09903X0… http:/… NA                         3.80     43.7 104.0   
#>  3 BSS002GNSA 09903X0… http:/… NA                         3.80     43.7 104.0   
#>  4 BSS002GNSA 09903X0… http:/… NA                         3.80     43.7 104.0   
#>  5 BSS002GNSA 09903X0… http:/… NA                         3.80     43.7 104.0   
#>  6 BSS002GNSA 09903X0… http:/… NA                         3.80     43.7 104.0   
#>  7 BSS002GNSA 09903X0… http:/… NA                         3.80     43.7 104.0   
#>  8 BSS002GNSA 09903X0… http:/… NA                         3.80     43.7 104.0   
#>  9 BSS002GNSA 09903X0… http:/… NA                         3.80     43.7 104.0   
#> 10 BSS002GNSA 09903X0… http:/… NA                         3.80     43.7 104.0   
#> # ℹ 852 more rows
#> # ℹ 173 more variables: code_insee_actuel <chr>, nom_commune_actuel <chr>,
#> #   num_departement <chr>, nom_departement <chr>, code_region <chr>,
#> #   nom_region <chr>, code_circonscription_administrative_bassin <chr>,
#> #   nom_circonscription_administrative_bassin <chr>, code_bassin_dce <chr>,
#> #   nom_bassin_dce <chr>, urn_bassin_dce <chr>, code_type_point_eau <int>,
#> #   nom_type_point_eau <chr>, codes_entite_hg_bdlisa <chr>, …
…
