Retrieve data from API "Prélèvements en eau" — get_prelevements_points_prelevement • hubeau
…
# Retrieve the withdrawal time series of the devices located in Romilly-sur-Seine
get_prelevements_chroniques(code_commune_insee = "10323")
#> # A tibble: 52 × 28
#>    code_ouvrage  annee volume code_usage libelle_usage code_statut_volume
#>    <chr>         <int>  <dbl> <chr>      <chr>         <chr>             
#>  1 OPR0000032603  2012 617624 AEP        EAU POTABLE   1                 
#>  2 OPR0000032603  2013 463545 AEP        EAU POTABLE   1                 
#>  3 OPR0000032603  2014 535557 AEP        EAU POTABLE   1                 
#>  4 OPR0000032603  2015 541785 AEP        EAU POTABLE   1                 
#>  5 OPR0000032603  2016 478938 AEP        EAU POTABLE   1                 
#>  6 OPR0000032603  2017 402363 AEP        EAU POTABLE   1                 
#>  7 OPR0000032603  2018 402383 AEP        EAU POTABLE   1                 
#>  8 OPR0000032604  2012 617624 AEP        EAU POTABLE   1                 
#>  9 OPR0000032604  2013 463545 AEP        EAU POTABLE   1                 
#> 10 OPR0000032604  2014 535557 AEP        EAU POTABLE   1                 
#> # ℹ 42 more rows
#> # ℹ 22 more variables: libelle_statut_volume <chr>,
#> #   code_qualification_volume <chr>, libelle_qualification_volume <chr>,
#> #   code_statut_instruction <chr>, libelle_statut_instruction <chr>,
#> #   code_mode_obtention_volume <chr>, libelle_mode_obtention_volume <chr>,
#> #   prelevement_ecrasant <lgl>, producteur_donnee <chr>, longitude <dbl>,
#> #   latitude <dbl>, code_commune_insee <chr>, nom_commune <chr>, …
…
