Retrieve data from API "Ecoulement des cours d'eau" — get_ecoulement_stations • hubeau
…
# Retrieve river stations
stations_39 <- get_ecoulement_stations(
  list(code_departement = "39",
       fields = "code_station,libelle_cours_eau,libelle_commune")
)
stations_39
#> # A tibble: 43 × 3
#>    code_station libelle_commune libelle_cours_eau    
#>    <chr>        <chr>           <chr>                
#>  1 U1084011     OFFLANGES       Ruisseau de la Vèze  
#>  2 U1084012     SALIGNEY        NA                   
#>  3 U1120011     MENOTEY         Ruisseau de Borne    
#>  4 U2530001     EVANS           La Grabusse          
#>  5 U2530002     FRAISANS        La Morte             
#>  6 U2542011     AMANGE          Ruisseau Vèze        
#>  7 U2542012     CHATENOIS       Ruisseau des Vaux    
#>  8 U2542013     LOUVATANGE      L'Arne               
#>  9 U2639011     CHAMBLAY        La Larine            
#> 10 U2640002     CHAMBLAY        Ruisseau de Clairvent
#> # … with 33 more rows
…
# Retrieve the river flow data in the Jura departement in 2022 with
# a selection of the fields
onde_39 <- get_ecoulement_observations(
  list(code_departement = "39",
       date_observation_min = "2022-01-01",
       date_observation_max = "2022-12-31",
       fields = "code_station,libelle_station,date_observation,libelle_ecoulement")
)
onde_39
#> # A tibble: 336 × 4
#>    code_station libelle_station                   date_observation libelle_eco…¹
#>    <chr>        <chr>                             <chr>            <chr>        
#>  1 U2640003     Pont D7 à GERMIGNEY               2022-10-24       Ecoulement n…
#>  2 U2655034     ruisseau de la verine à Vaudrey   2022-10-24       Ecoulement v…
#>  3 U2640002     ruisseau de clairvent à Chamblay  2022-10-24       Ecoulement v…
#>  4 U1084012     Ruisseau de la Serre à Saligney   2022-10-24       Ecoulement v…
#>  5 U1120011     ruisseau de la foret à Menotey    2022-10-24       Ecoulement v…
#>  6 U2722011     Rivière la Sablonne à Bousselange 2022-10-24       Ecoulement v…
#>  7 U2530001     La grabusse à Dampierre           2022-10-24       Ecoulement v…
#>  8 U2542013     Ruisseau l'Arne à Louvatange      2022-10-24       Ecoulement v…
#>  9 U2542012     Ruisseau des Vaux à Chatenois     2022-10-24       Ecoulement v…
#> 10 U2542011     Ruisseau Du Moulinot à Amange     2022-10-24       Ecoulement v…
#> # … with 326 more rows, and abbreviated variable name ¹​libelle_ecoulement
…
