Getting data from the API "qualité des cours d'eau" • hubeau
…
The argument “code_departement” will be used with the value “21”
which is the French administrative code for Côte d’Or.

station_21 <- get_qualite_rivieres_station(code_departement = "21")

station_21
#> # A tibble: 468 × 48
#>    code_station libelle_station     uri_station durete coordonnee_x coordonnee_y
#>    <chr>        <chr>               <chr>       <lgl>         <dbl>        <dbl>
#>  1 03000029     LE RUISSEAU DU FEU… https://id… NA          829934      6715298 
#>  2 03000033     La Seine à Courceau https://id… NA          827760      6716247 
#>  3 03000070     Ruisseau de Jugny   https://id… NA          829586      6718953 
#>  4 03000100     LA SEINE A BAIGNEU… https://id… NA          826286      6724377 
#>  5 03000180     LE RU DE COSNE A Q… https://id… NA          824754      6731499 
#>  6 03000311     La coquille à Etal… https://id… NA          831785      6728503 
#>  7 03000344     LA COQUILLE A AIGN… https://id… NA          830428      6730843 
#>  8 03000346     La coquille à l'av… https://id… NA          829398      6731552 
#>  9 03000440     LE REVINSON A DUES… https://id… NA          827650.     6730547.
#> 10 03000450     LE REVINSON A QUEM… https://id… NA          825751      6731858 
#> # ℹ 458 more rows
#> # ℹ 42 more variables: code_projection <chr>, libelle_projection <chr>,
#> #   longitude <dbl>, latitude <dbl>, code_commune <chr>, libelle_commune <chr>,
#> #   code_departement <chr>, libelle_departement <chr>, code_region <chr>,
#> #   libelle_region <chr>, code_cours_eau <chr>, nom_cours_eau <chr>,
#> #   uri_cours_eau <chr>, code_masse_deau <chr>, code_eu_masse_deau <chr>,
#> #   nom_masse_deau <chr>, uri_masse_deau <chr>, code_eu_sous_bassin <chr>, …
…
date_debut_prelevement et
date_fin_prelevement: beginning and end dates of samples
(“yyyy-mm-dd” format).

The query can be written as follows:

nitrates_21_raw <- get_qualite_rivieres_analyse(code_departement = "21", 
                                            date_debut_prelevement = "2000-01-01", 
                                            date_fin_prelevement = "2000-12-31", 
                                            code_parametre = "1340")

dim(nitrates_21_raw)
#> [1] 221 125
nitrates_21_raw
#> # A tibble: 221 × 125
#>    code_station libelle_station         uri_station code_support libelle_support
#>    <chr>        <chr>                   <chr>       <chr>        <chr>          
#>  1 06011000     "SAONE A AUXONNE 1"     https://id… 3            Eau            
#>  2 06017050     "SAONE A CHARREY-SUR-S… https://id… 3            Eau            
#>  3 03002100     "LA SEINE A CHARREY-SU… https://id… 0            Support inconnu
#>  4 06016500     "OUCHE A ECHENON "      https://id… 3            Eau            
#>  5 06016000     "OUCHE A CRIMOLOIS 1"   https://id… 3            Eau            
#>  6 06013800     "TILLE A CHAMPDOTRE 1"  https://id… 3            Eau            
#>  7 03041000     "LA BRENNE A SAINT-REM… https://id… 3            Eau            
#>  8 06017050     "SAONE A CHARREY-SUR-S… https://id… 3            Eau            
#>  9 06013800     "TILLE A CHAMPDOTRE 1"  https://id… 3            Eau            
#> 10 06016000     "OUCHE A CRIMOLOIS 1"   https://id… 3            Eau            
#> # ℹ 211 more rows
#> # ℹ 120 more variables: uri_support <chr>, code_fraction <chr>,
#> #   libelle_fraction <chr>, uri_fraction <chr>, date_prelevement <chr>,
#> #   heure_prelevement <chr>, date_analyse <chr>, heure_analyse <lgl>,
#> #   code_parametre <chr>, libelle_parametre <chr>, uri_parametre <chr>,
#> #   resultat <dbl>, code_groupe_parametre1 <chr>, code_groupe_parametre2 <chr>,
#> #   code_groupe_parametre3 <chr>, code_groupe_parametre4 <chr>, …
…
dim(nitrates_21)
#> [1] 13314     6
nitrates_21
#> # A tibble: 13,314 × 6
#>    code_station libelle_station       libelle_fraction date_prelevement resultat
#>    <chr>        <chr>                 <chr>            <chr>               <dbl>
#>  1 06011000     "SAONE A AUXONNE 1"   Phase aqueuse d… 2000-01-11           13  
#>  2 06017050     "SAONE A CHARREY-SUR… Phase aqueuse d… 2000-01-11           14.8
#>  3 03002100     "LA SEINE A CHARREY-… Phase aqueuse d… 2000-01-18           31  
#>  4 06016500     "OUCHE A ECHENON "    Phase aqueuse d… 2000-01-18           20  
#>  5 06016000     "OUCHE A CRIMOLOIS 1" Phase aqueuse d… 2000-01-18           17  
#>  6 06013800     "TILLE A CHAMPDOTRE … Phase aqueuse d… 2000-01-18           25.8
#>  7 03041000     "LA BRENNE A SAINT-R… Phase aqueuse d… 2000-01-18           22.1
#>  8 06017050     "SAONE A CHARREY-SUR… Phase aqueuse d… 2000-02-15           11.8
#>  9 06013800     "TILLE A CHAMPDOTRE … Phase aqueuse d… 2000-02-15           20.8
#> 10 06016000     "OUCHE A CRIMOLOIS 1" Phase aqueuse d… 2000-02-15           15.2
#> # ℹ 13,304 more rows
#> # ℹ 1 more variable: symbole_unite <chr>
…
We compute some annual statistics for each station:

nitrates_21 <- nitrates_21 %>% 
  mutate(date_prelevement = as.POSIXct(date_prelevement),
         year = year(date_prelevement))

station_stats <- nitrates_21 %>%
  group_by(code_station, libelle_station, year) %>%
  summarise(nb_analyses = n(), 
            nitrate_mean = mean(resultat),
            nitrate_p90 = quantile(resultat, probs = 0.9), 
            .groups = 'drop')
station_stats
#> # A tibble: 1,830 × 6
#>    code_station libelle_station        year nb_analyses nitrate_mean nitrate_p90
#>    <chr>        <chr>                 <dbl>       <int>        <dbl>       <dbl>
#>  1 03000029     LE RUISSEAU DU FEU A…  2017           6         23.4        37.8
#>  2 03000029     LE RUISSEAU DU FEU A…  2021           6         28.3        36.5
#>  3 03000029     LE RUISSEAU DU FEU A…  2022          12         24.5        36.6
#>  4 03000033     La Seine à Courceau    2016           6         21.3        29.2
#>  5 03000033     La Seine à Courceau    2017           6         18.2        30.2
#>  6 03000033     La Seine à Courceau    2021           6         25.8        31.5
#>  7 03000033     La Seine à Courceau    2022          18         20          25  
#>  8 03000070     Ruisseau de Jugny      2016           6         15.7        20.4
#>  9 03000070     Ruisseau de Jugny      2017           5         20.9        35.8
#> 10 03000070     Ruisseau de Jugny      2021           6         17.8        25.5
#> # ℹ 1,820 more rows
…
